{
  "name": "Tragedy and Geometry",
  "tokenColors": [
    {
      "name": "Global settings",
      "settings": {
        "background": "#06122F",
        "foreground": "#f8f8ff"
      }
    },
    {
      "name": "String",
      "scope": "string",
      "settings": {
        "foreground": "#9381ff"
      }
    },
    {
      "name": "String Escape",
      "scope": "constant.character.escape, text.html constant.character.entity.named, punctuation.definition.entity.html",
      "settings": {
        "foreground": "#dcc1ff"
      }
    },
    {
      "name": "Boolean",
      "scope": "constant.language.boolean",
      "settings": {
        "foreground": "#00E086"
      }
    },
    {
      "name": "Number",
      "scope": "constant.numeric",
      "settings": {
        "foreground": "#FFAA00"
      }
    },
    {
      "name": "Identifier",
      "scope": "variable, support.variable, support.class, support.constant, meta.definition.variable entity.name.function",
      "settings": {
        "foreground": "#00ffc9"
      }
    },
    {
      "name": "Keyword",
      "scope": "keyword, modifier, variable.language.this, support.type.object, constant.language",
      "settings": {
        "foreground": "#00E086"
      }
    },
    {
      "name": "Function call",
      "scope": "entity.name.function, support.function",
      "settings": {
        "foreground": "#FFAA00"
      }
    },
    {
      "name": "Storage",
      "scope": "storage.type, storage.modifier",
      "settings": {
        "foreground": "#00E086"
      }
    },
    {
      "name": "Modules",
      "scope": "support.module, support.node",
      "settings": {
        "foreground": "#00ffc9",
        "fontStyle": "italic"
      }
    },
    {
      "name": "Type",
      "scope": "support.type",
      "settings": {
        "foreground": "#FFAA00"
      }
    },
    {
      "name": "Type",
      "scope": "entity.name.type, entity.other.inherited-class",
      "settings": {
        "foreground": "#FFAA00"
      }
    },
    {
      "name": "Comment",
      "scope": "comment",
      "settings": {
        "foreground": "#9381ff",
        "fontStyle": "italic"
      }
    },
    {
      "name": "Class",
      "scope": "entity.name.type.class",
      "settings": {
        "foreground": "#FFAA00",
        "fontStyle": "underline"
      }
    },
    {
      "name": "Class variable",
      "scope": "variable.object.property, meta.field.declaration entity.name.function",
      "settings": {
        "foreground": "#FFAA00"
      }
    },
    {
      "name": "Class method",
      "scope": "meta.definition.method entity.name.function",
      "settings": {
        "foreground": "#FFAA00"
      }
    },
    {
      "name": "Function definition",
      "scope": "meta.function entity.name.function",
      "settings": {
        "foreground": "#FFAA00"
      }
    },
    {
      "name": "Template expression",
      "scope": "template.expression.begin, template.expression.end, punctuation.definition.template-expression.begin, punctuation.definition.template-expression.end",
      "settings": {
        "foreground": "#00E086"
      }
    },
    {
      "name": "Reset embedded/template expression colors",
      "scope": "meta.embedded, source.groovy.embedded, meta.template.expression",
      "settings": {
        "foreground": "#f8f8ff"
      }
    },
    {
      "name": "YAML key",
      "scope": "entity.name.tag.yaml",
      "settings": {
        "foreground": "#00ffc9"
      }
    },
    {
      "name": "JSON key",
      "scope": "meta.object-literal.key, meta.object-literal.key string, support.type.property-name.json",
      "settings": {
        "foreground": "#00ffc9"
      }
    },
    {
      "name": "JSON constant",
      "scope": "constant.language.json",
      "settings": {
        "foreground": "#00E086"
      }
    },
    {
      "name": "CSS class",
      "scope": "entity.other.attribute-name.class",
      "settings": {
        "foreground": "#00E086"
      }
    },
    {
      "name": "CSS ID",
      "scope": "entity.other.attribute-name.id",
      "settings": {
        "foreground": "#9381ff"
      }
    },
    {
      "name": "CSS tag",
      "scope": "source.css entity.name.tag",
      "settings": {
        "foreground": "#FFAA00"
      }
    },
    {
      "name": "HTML tag outer",
      "scope": "meta.tag, punctuation.definition.tag",
      "settings": {
        "foreground": "#00E086"
      }
    },
    {
      "name": "HTML tag inner",
      "scope": "entity.name.tag",
      "settings": {
        "foreground": "#00ffc9"
      }
    },
    {
      "name": "HTML tag attribute",
      "scope": "entity.other.attribute-name",
      "settings": {
        "foreground": "#FFAA00"
      }
    },
    {
      "name": "Markdown heading",
      "scope": "markup.heading",
      "settings": {
        "foreground": "#00E086"
      }
    },
    {
      "name": "Markdown link text",
      "scope": "text.html.markdown meta.link.inline, meta.link.reference",
      "settings": {
        "foreground": "#00ffc9"
      }
    },
    {
      "name": "Markdown list item",
      "scope": "text.html.markdown beginning.punctuation.definition.list",
      "settings": {
        "foreground": "#00E086"
      }
    },
    {
      "name": "Markdown italic",
      "scope": "markup.italic",
      "settings": {
        "foreground": "#00ffc9",
        "fontStyle": "italic"
      }
    },
    {
      "name": "Markdown bold",
      "scope": "markup.bold",
      "settings": {
        "foreground": "#00ffc9",
        "fontStyle": "bold"
      }
    },
    {
      "name": "Markdown bold italic",
      "scope": "markup.bold markup.italic, markup.italic markup.bold",
      "settings": {
        "foreground": "#00ffc9",
        "fontStyle": "italic bold"
      }
    },
    {
      "name": "Markdown code block",
      "scope": "markup.fenced_code.block.markdown punctuation.definition.markdown",
      "settings": {
        "foreground": "#9381ff"
      }
    },
    {
      "name": "Markdown inline code",
      "scope": "markup.inline.raw.string.markdown",
      "settings": {
        "foreground": "#9381ff"
      }
    },
    {
      "name": "INI property name",
      "scope": "keyword.other.definition.ini",
      "settings": {
        "foreground": "#00ffc9"
      }
    },
    {
      "name": "INI section title",
      "scope": "entity.name.section.group-title.ini",
      "settings": {
        "foreground": "#00E086"
      }
    },
    {
      "name": "C# class",
      "scope": "source.cs meta.class.identifier storage.type",
      "settings": {
        "foreground": "#FFAA00",
        "fontStyle": "underline"
      }
    },
    {
      "name": "C# class method",
      "scope": "source.cs meta.method.identifier entity.name.function",
      "settings": {
        "foreground": "#FFAA00"
      }
    },
    {
      "name": "C# function call",
      "scope": "source.cs meta.method-call meta.method, source.cs entity.name.function",
      "settings": {
        "foreground": "#FFAA00"
      }
    },
    {
      "name": "C# type",
      "scope": "source.cs storage.type",
      "settings": {
        "foreground": "#FFAA00"
      }
    },
    {
      "name": "C# return type",
      "scope": "source.cs meta.method.return-type",
      "settings": {
        "foreground": "#FFAA00"
      }
    },
    {
      "name": "C# preprocessor",
      "scope": "source.cs meta.preprocessor",
      "settings": {
        "foreground": "#9381ff"
      }
    },
    {
      "name": "C# namespace",
      "scope": "source.cs entity.name.type.namespace",
      "settings": {
        "foreground": "#f8f8ff"
      }
    },
    {
      "name": "Global settings",
      "settings": {
        "background": "#06122F",
        "foreground": "#f8f8ff"
      }
    }
  ],
  "colors": {
    "focusBorder": "#00E086",
    "foreground": "#f8f8ff",
    "dropdown.background": "#091c4b",
    "input.background": "#091c4b",
    "inputOption.activeBorder": "#00E086",
    "list.activeSelectionBackground": "#00E08680",
    "list.dropBackground": "#00E08680",
    "list.focusBackground": "#00E08680",
    "list.hoverBackground": "#FFFFFF1a",
    "list.inactiveSelectionBackground": "#FFFFFF33",
    "activityBar.background": "#081941",
    "activityBar.dropBackground": "#00E08680",
    "activityBarBadge.background": "#9381ff",
    "sideBar.background": "#071538",
    "sideBarSectionHeader.background": "#081941",
    "editorGroup.dropBackground": "#00E08680",
    "editorGroup.focusedEmptyBorder": "#00E086",
    "editorGroupHeader.tabsBackground": "#071538",
    "tab.border": "#00000033",
    "tab.activeBorder": "#00E086",
    "tab.inactiveBackground": "#081941",
    "tab.activeModifiedBorder": "#00E086",
    "tab.inactiveModifiedBorder": "#008650",
    "tab.unfocusedActiveModifiedBorder": "#00b36b",
    "tab.unfocusedInactiveModifiedBorder": "#008650",
    "editor.background": "#06122F",
    "editor.foreground": "#f8f8ff",
    "editorLineNumber.foreground": "#FFFFFF4d",
    "editorLineNumber.activeForeground": "#00E086",
    "editor.lineHighlightBorder": "#FFFFFF1a",
    "editor.rangeHighlightBackground": "#FFFFFF0d",
    "editorWidget.background": "#071538",
    "editorHoverWidget.background": "#071538",
    "editorMarkerNavigation.background": "#071538",
    "peekView.border": "#00E086",
    "peekViewEditor.background": "#040e25",
    "peekViewResult.background": "#071538",
    "peekViewTitle.background": "#06122F",
    "panel.background": "#071538",
    "panel.border": "#FFFFFF1a",
    "panelTitle.activeBorder": "#f8f8ff80",
    "panelTitle.inactiveForeground": "#f8f8ff80",
    "statusBar.background": "#040e25",
    "statusBar.debuggingBackground": "#00E086",
    "statusBar.noFolderBackground": "#040e25",
    "statusBarItem.activeBackground": "#00E08680",
    "statusBarItem.hoverBackground": "#FFFFFF1a",
    "titleBar.activeBackground": "#040e25",
    "pickerGroup.border": "#FFFFFF1a",
    "debugToolBar.background": "#081941",
    "selection.background": "#00E086"
  }
}